{
  "default": {
    "AWS_PROFILE": "default",
    "AWS_REGION": "eu-central-1",
    "S3_BUCKET": "webiny-files",
    "MONGODB_SERVER": "mongodb://localhost:27017",
    "MONGODB_NAME": "webiny",
    "JWT_SECRET": ""
  },
  "dev": {
    "GRAPHQL_HOST": "http://localhost:9000",
    "GRAPHQL_SERVICES_HOST": "http://localhost:9000",
    "GRAPHQL_INTROSPECTION": true,
    "GRAPHQL_PLAYGROUND": true,
    "DEBUG": true
  },
  "prod": {
    "GRAPHQL_HOST": "https://www.mysite.com:9000",
    "GRAPHQL_SERVICES_HOST": "http://www.mysite.com:9000",
    "GRAPHQL_INTROSPECTION": false,
    "GRAPHQL_PLAYGROUND": false,
    "DEBUG": false
  }
}